{
    "swagger": "2.0",
    "info": {
        "title": "",
        "version": "",
        "description": ""
    },
    "paths": {
        "/brapi/v1/germplasm-search": {
            "post": {
                "responses": {
                    "200": {
                        "description": "OK",
                        "headers": {},
                        "examples": {
                            "application/json": {
                                "metadata": {
                                    "status": [],
                                    "datafiles": [],
                                    "pagination": {
                                        "pageSize": 100,
                                        "currentPage": 1,
                                        "totalCount": 102,
                                        "totalPages": 2
                                    }
                                },
                                "result": {
                                    "data": [
                                        {
                                            "germplasmDbId": "01BEL084609",
                                            "defaultDisplayName": "Pahang",
                                            "accessionNumber": "ITC0609",
                                            "germplasmName": "Pahang",
                                            "germplasmPUI": "http://www.crop-diversity.org/mgis/accession/01BEL084609",
                                            "pedigree": "TOBA97/SW90.1057",
                                            "germplasmSeedSource": "Female GID:4/Male GID:4",
                                            "synonyms": [],
                                            "commonCropName": "banana",
                                            "instituteCode": "01BEL084",
                                            "instituteName": "ITC",
                                            "biologicalStatusOfAccessionCode": 412,
                                            "countryOfOriginCode": "UNK",
                                            "typeOfGermplasmStorageCode": [
                                                10
                                            ],
                                            "genus": "Musa",
                                            "species": "acuminata",
                                            "taxonIds": [
                                                {
                                                    "sourceName": "ncbiTaxon",
                                                    "taxonId": "http://purl.obolibrary.org/obo/NCBITaxon_4641"
                                                },
                                                {
                                                    "sourceName": "ciradTaxon",
                                                    "taxonId": "23-E"
                                                }
                                            ],
                                            "speciesAuthority": "",
                                            "subtaxa": "sp malaccensis var pahang",
                                            "subtaxaAuthority": "",
                                            "donors": [
                                                {
                                                    "donorAccessionNumber": "",
                                                    "donorInstituteCode": "",
                                                    "germplasmPUI": ""
                                                }
                                            ],
                                            "acquisitionDate": "1947-01-31"
                                        },
                                        {
                                            "germplasmDbId": "03REL084609",
                                            "defaultDisplayName": "Pah",
                                            "accessionNumber": "ITC0685",
                                            "germplasmName": "Pah",
                                            "germplasmPUI": "doi:10.15454/328757862534E12",
                                            "pedigree": "TOBA97/SW90.1057",
                                            "germplasmSeedSource": "Female GID:4/Male GID:4",
                                            "synonyms": [],
                                            "commonCropName": "banana",
                                            "instituteCode": "01BEL084",
                                            "instituteName": "ITC",
                                            "biologicalStatusOfAccessionCode": 412,
                                            "countryOfOriginCode": "UNK",
                                            "typeOfGermplasmStorageCode": [
                                                10
                                            ],
                                            "genus": "Musa",
                                            "species": "acuminata",
                                            "taxonIds": [
                                                {
                                                    "sourceName": "ncbiTaxon",
                                                    "taxonId": "http://purl.obolibrary.org/obo/NCBITaxon_4641"
                                                },
                                                {
                                                    "sourceName": "ciradTaxon",
                                                    "taxonId": "23-E"
                                                }
                                            ],
                                            "speciesAuthority": "",
                                            "subtaxa": "sp malaccensis var pah",
                                            "subtaxaAuthority": "",
                                            "donors": [
                                                {
                                                    "donorAccessionNumber": "",
                                                    "donorInstituteCode": "",
                                                    "germplasmPUI": ""
                                                }
                                            ],
                                            "acquisitionDate": "1977-01-31"
                                        }
                                    ]
                                }
                            }
                        }
                    }
                },
                "summary": "Germplasm search through POST",
                "description": "Use POST for large queries (>2K bytes).",
                "tags": [],
                "parameters": [
                    {
                        "name": "body",
                        "in": "body",
                        "schema": {
                            "type": "object",
                            "properties": {
                                "germplasmPUIs": {
                                    "type": "array",
                                    "items": {
                                        "type": "string"
                                    }
                                },
                                "germplasmDbIds": {
                                    "type": "array",
                                    "items": {
                                        "type": "string"
                                    }
                                },
                                "germplasmSpecies": {
                                    "type": "array",
                                    "items": {
                                        "type": "string"
                                    }
                                },
                                "germplasmGenus": {
                                    "type": "array",
                                    "items": {
                                        "type": "string"
                                    }
                                },
                                "germplasmNames": {
                                    "type": "array",
                                    "items": {
                                        "type": "string"
                                    }
                                },
                                "accessionNumbers": {
                                    "type": "array",
                                    "items": {
                                        "type": "string"
                                    }
                                },
                                "pageSize": {
                                    "type": "number"
                                },
                                "page": {
                                    "type": "number"
                                }
                            }
                        }
                    }
                ],
                "produces": [
                    "application/json"
                ]
            }
        }
    },
    "definitions": {
        "Germplasm search through POST": {}
    }
}